Tiny introduction to the Tidyverse
…
```r
mytibble <- tibble(
  letters = LETTERS,
  numbers = 1:26
)
```

---

## tibble

.pull-left[

```
## # A tibble: 26 x 2
##    letters numbers
##    <chr>     <int>
##  1 A             1
##  2 B             2
##  3 C             3
##  4 D             4
##  5 E             5
##  6 F             6
##  7 G             7
##  8 H             8
##  9 I             9
## 10 J            10
## # … with 16 more rows
```
…
- Only the first rows are displayed.
]

---

## tibble

Print the first 15 rows:

```r
*print(mytibble, n=15)
```

```
## # A tibble: 26 x 2
##    letters numbers
##    <chr>     <int>
##  1 A             1
##  2 B             2
##  3 C             3
##  4 D             4
##  5 E             5
##  6 F             6
##  7 G             7
##  8 H             8
##  9 I             9
## 10 J            10
## 11 K            11
## 12 L            12
## 13 M            13
## 14 N            14
## 15 O            15
## # … with 11 more rows
```
…
* Term starting date

* Term ending date of mandate

* Political party
 
--

```r
print(presidential, n=6)
```

```
## # A tibble: 11 x 4
##   name       start      end        party     
##   <chr>      <date>     <date>     <chr>     
## 1 Eisenhower 1953-01-20 1961-01-20 Republican
## 2 Kennedy    1961-01-20 1963-11-22 Democratic
## 3 Johnson    1963-11-22 1969-01-20 Democratic
## 4 Nixon      1969-01-20 1974-08-09 Republican
## 5 Ford       1974-08-09 1977-01-20 Republican
## 6 Carter     1977-01-20 1981-01-20 Democratic
## # … with 5 more rows
```
…
---

## dplyr & %>%
### Hands on !

We will work with the **storms** data set:
* Positions and attributes of **198 tropical storms**, measured every 6 hours

```r
storms
```

```
## # A tibble: 10,010 x 13
##    name   year month   day  hour   lat  long status category  wind pressure
##    <chr> <dbl> <dbl> <int> <dbl> <dbl> <dbl> <chr>  <ord>    <int>    <int>
##  1 Amy    1975     6    27     0  27.5 -79   tropi… -1          25     1013
##  2 Amy    1975     6    27     6  28.5 -79   tropi… -1          25     1013
##  3 Amy    1975     6    27    12  29.5 -79   tropi… -1          25     1013
##  4 Amy    1975     6    27    18  30.5 -79   tropi… -1          25     1013
##  5 Amy    1975     6    28     0  31.5 -78.8 tropi… -1          25     1012
##  6 Amy    1975     6    28     6  32.4 -78.7 tropi… -1          25     1012
##  7 Amy    1975     6    28    12  33.3 -78   tropi… -1          25     1011
##  8 Amy    1975     6    28    18  34   -77   tropi… -1          30     1006
##  9 Amy    1975     6    29     0  34.4 -75.8 tropi… 0           35     1004
## 10 Amy    1975     6    29     6  34   -74.8 tropi… 0           40     1002
## # … with 10,000 more rows, and 2 more variables: ts_diameter <dbl>,
## #   hu_diameter <dbl>
```
…
--

```r
# sort by increasing minimum wind speed
storms %>%
  group_by(name) %>%
  summarise(min_wind = min(wind)) %>%
  arrange(min_wind)
```

```
## # A tibble: 198 x 2
##    name      min_wind
##    <chr>        <int>
##  1 AL031987        10
##  2 Alberto         10
##  3 Bonnie          10
##  4 AL021994        15
##  5 AL072003        15
##  6 Allison         15
##  7 Barry           15
##  8 Beryl           15
##  9 Claudette       15
## 10 Fay             15
## # … with 188 more rows
```
…
--

```r
# sort by decreasing number of storms
distinct(storms, name, year) %>%
  group_by(year) %>%
  summarise(storms_per_year=n()) %>%
  arrange(desc(storms_per_year))
```

```
## # A tibble: 41 x 2
##     year storms_per_year
##    <dbl>           <int>
##  1  1995              21
##  2  2005              21
##  3  2003              20
##  4  2010              20
##  5  2001              17
##  6  2012              17
##  7  2000              16
##  8  2007              16
##  9  2011              15
## 10  2008              14
## # … with 31 more rows
```
…
